{
  "project_info": {
    "project_number": "640977185853",
    "project_id": "footballtracker-eb5b7",
    "storage_bucket": "footballtracker-eb5b7.appspot.com"
  },
  "client": [
    {
      "client_info": {
        "mobilesdk_app_id": "1:640977185853:android:cb70b24adbcd277bca4e54",
        "android_client_info": {
          "package_name": "fr.efrei.footballtracker"
        }
      },
      "oauth_client": [
        {
          "client_id": "640977185853-quj499rhpbpk0s3kig1vsvc8hpgkj1gq.apps.googleusercontent.com",
          "client_type": 1,
          "android_info": {
            "package_name": "fr.efrei.footballtracker",
            "certificate_hash": "c9fe84b1ca2a825388219d1f505a7087c663125a"
          }
        },
        {
          "client_id": "640977185853-rade4bd3ejuqq4v8knam5duuj4eemlgu.apps.googleusercontent.com",
          "client_type": 1,
          "android_info": {
            "package_name": "fr.efrei.footballtracker",
            "certificate_hash": "633a33872c347a15efee900aa982514b537cb19c"
          }
        },
        {
          "client_id": "640977185853-q5996o55bfp0mq9877bfjdlanmaeh28h.apps.googleusercontent.com",
          "client_type": 3
        }
      ],
      "api_key": [
        {
          "current_key": "AIzaSyDUhyb4Ri59x_t64VVpMavysXncIuG1WdQ"
        }
      ],
      "services": {
        "appinvite_service": {
          "other_platform_oauth_client": [
            {
              "client_id": "640977185853-pt5rs6n303lqos09jjph6b6akqmavt6p.apps.googleusercontent.com",
              "client_type": 3
            }
          ]
        }
      }
    }
  ],
  "configuration_version": "1"
}